{ "Ontology":"https://bit.ly/2OxeEkO","object":"vcard","fn":"Perico de los Palotes Perez",
"nickname":"Peri","hasEmail":"mailto:perpalper@gmail.com","Gender":"Male","bday":"1988-06-23","adr":"José Gutiérrez Abascal 2, 28006, Madrid"
}
